debartha has deleted a folder cuedrive://user/device47/1 on  web at 03/07/2014 7:00 pm with IP address :115.118.136.244

debartha has deleted a folder cuedrive://user/device47/1 on  web at 03/07/2014 7:00 pm with IP address :115.118.136.244

debartha has deleted a folder cuedrive://user/device47/1 on  web at 03/07/2014 7:00 pm with IP address :115.118.136.244

